{
  "uid": "interpreter",
  "name": "Interpreter",
  "description": "Multilanguage professional interpreter",
  "overwrite": true,
  "model": "gemma2",
  "system": "",
  "model_options": {},
  "parameters": null,
  "actions": null
}